{
  "current_page": 1,
  "data": [
    {
      "id": 2071895,
      "invoice_id": 10305814,
      "status": "published",
      "message": "Immediate delivery, good service and help",
      "rating": 5,
      "is_automatic": false,
      "reply": null,
      "dispute_reason": null,
      "disputed_at": null,
      "replied_at": null,
      "created_at": "2026-02-26T01:09:44.000000Z",
      "updated_at": "2026-02-26T01:09:44.000000Z",
      "deleted_at": null,
      "invoice": {
        "id": 10305814,
        "salt": "f5761e6364f3e",
        "email": "olivershelsing@gmail.com",
        "unique_id": "f5761e6364f3e-0000010305814",
        "items": [
          {
            "id": 8611137,
            "invoice_id": 10305814,
            "product_id": 611995,
            "variant_id": 955421,
            "product": {
              "id": 611995,
              "name": "R6 – Account Gen",
              "stock_count": 0
            },
            "variant": {
              "id": 955421,
              "name": "1 Day"
            }
          }
        ]
      }
    },
    {
      "id": 2071862,
      "invoice_id": 10128551,
      "status": "published",
      "message": null,
      "rating": 5,
      "is_automatic": true,
      "reply": null,
      "dispute_reason": null,
      "disputed_at": null,
      "replied_at": null,
      "created_at": "2026-02-26T01:00:09.000000Z",
      "updated_at": "2026-02-26T01:00:09.000000Z",
      "deleted_at": null,
      "invoice": {
        "id": 10128551,
        "salt": "2396faae108c1",
        "email": "imarandommv2@gmail.com",
        "unique_id": "2396faae108c1-0000010128551",
        "items": [
          {
            "id": 8425386,
            "invoice_id": 10128551,
            "product_id": 576463,
            "variant_id": 890477,
            "product": {
              "id": 576463,
              "name": "Exodus - Fortnite External",
              "stock_count": 0
            },
            "variant": {
              "id": 890477,
              "name": "1 Day"
            }
          }
        ]
      }
    },
    {
      "id": 2071847,
      "invoice_id": 10306056,
      "status": "published",
      "message": "GOOD SELLLER HELP WORK THINGS OUT, BEST 2H OF MY LIFE",
      "rating": 5,
      "is_automatic": false,
      "reply": null,
      "dispute_reason": null,
      "disputed_at": null,
      "replied_at": null,
      "created_at": "2026-02-26T00:56:55.000000Z",
      "updated_at": "2026-02-26T00:56:55.000000Z",
      "deleted_at": null,
      "invoice": {
        "id": 10306056,
        "salt": "f8ce8ac36bc55",
        "email": "niks453012@gmail.com",
        "unique_id": "f8ce8ac36bc55-0000010306056",
        "items": [
          {
            "id": 8611395,
            "invoice_id": 10306056,
            "product_id": 624152,
            "variant_id": 977033,
            "product": {
              "id": 624152,
              "name": "Rust Lite | loader.fit",
              "stock_count": 0
            },
            "variant": {
              "id": 977033,
              "name": "day"
            }
          }
        ]
      }
    },
    {
      "id": 2066481,
      "invoice_id": 10103500,
      "status": "published",
      "message": null,
      "rating": 5,
      "is_automatic": true,
      "reply": null,
      "dispute_reason": null,
      "disputed_at": null,
      "replied_at": null,
      "created_at": "2026-02-24T23:43:11.000000Z",
      "updated_at": "2026-02-24T23:43:11.000000Z",
      "deleted_at": null,
      "invoice": {
        "id": 10103500,
        "salt": "5eef99abe8cca",
        "email": "imarandommv2@gmail.com",
        "unique_id": "5eef99abe8cca-0000010103500",
        "items": [
          {
            "id": 8398927,
            "invoice_id": 10103500,
            "product_id": 576463,
            "variant_id": 890477,
            "product": {
              "id": 576463,
              "name": "Exodus - Fortnite External",
              "stock_count": 0
            },
            "variant": {
              "id": 890477,
              "name": "1 Day"
            }
          }
        ]
      }
    },
    {
      "id": 2062775,
      "invoice_id": 10085898,
      "status": "published",
      "message": null,
      "rating": 5,
      "is_automatic": true,
      "reply": null,
      "dispute_reason": null,
      "disputed_at": null,
      "replied_at": null,
      "created_at": "2026-02-24T06:33:03.000000Z",
      "updated_at": "2026-02-24T06:33:03.000000Z",
      "deleted_at": null,
      "invoice": {
        "id": 10085898,
        "salt": "0cfcaec9f8590",
        "email": "Austinh45@icloud.com",
        "unique_id": "0cfcaec9f8590-0000010085898",
        "items": [
          {
            "id": 8380288,
            "invoice_id": 10085898,
            "product_id": 620835,
            "variant_id": 971486,
            "product": {
              "id": 620835,
              "name": "Pre‑ranked and fully stacked R6 Siege accounts.",
              "stock_count": 0
            },
            "variant": {
              "id": 971486,
              "name": "NFA Accounts"
            }
          }
        ]
      }
    },
    {
      "id": 2048248,
      "invoice_id": 10202800,
      "status": "published",
      "message": "i love this cheat",
      "rating": 5,
      "is_automatic": false,
      "reply": null,
      "dispute_reason": null,
      "disputed_at": null,
      "replied_at": null,
      "created_at": "2026-02-21T21:59:27.000000Z",
      "updated_at": "2026-02-21T21:59:27.000000Z",
      "deleted_at": null,
      "invoice": {
        "id": 10202800,
        "salt": "202a4e8a7a012",
        "email": "loganv074@gmail.com",
        "unique_id": "202a4e8a7a012-0000010202800",
        "items": [
          {
            "id": 8503059,
            "invoice_id": 10202800,
            "product_id": 465176,
            "variant_id": 683033,
            "product": {
              "id": 465176,
              "name": "Vega - R6 External",
              "stock_count": 0
            },
            "variant": {
              "id": 683033,
              "name": "Day"
            }
          }
        ]
      }
    },
    {
      "id": 2044515,
      "invoice_id": 10000652,
      "status": "published",
      "message": null,
      "rating": 5,
      "is_automatic": true,
      "reply": null,
      "dispute_reason": null,
      "disputed_at": null,
      "replied_at": null,
      "created_at": "2026-02-21T04:44:17.000000Z",
      "updated_at": "2026-02-21T04:44:17.000000Z",
      "deleted_at": null,
      "invoice": {
        "id": 10000652,
        "salt": "668ab91921325",
        "email": "aydenspider257@gmail.com",
        "unique_id": "668ab91921325-0000010000652",
        "items": [
          {
            "id": 8290814,
            "invoice_id": 10000652,
            "product_id": 465176,
            "variant_id": 683033,
            "product": {
              "id": 465176,
              "name": "Vega - R6 External",
              "stock_count": 0
            },
            "variant": {
              "id": 683033,
              "name": "Day"
            }
          }
        ]
      }
    },
    {
      "id": 2043492,
      "invoice_id": 9995641,
      "status": "published",
      "message": null,
      "rating": 5,
      "is_automatic": true,
      "reply": null,
      "dispute_reason": null,
      "disputed_at": null,
      "replied_at": null,
      "created_at": "2026-02-21T00:11:12.000000Z",
      "updated_at": "2026-02-21T00:11:12.000000Z",
      "deleted_at": null,
      "invoice": {
        "id": 9995641,
        "salt": "1d57dd662a68d",
        "email": "jamisonkaden7@gmail.com",
        "unique_id": "1d57dd662a68d-0000009995641",
        "items": [
          {
            "id": 8285608,
            "invoice_id": 9995641,
            "product_id": 611995,
            "variant_id": 955421,
            "product": {
              "id": 611995,
              "name": "R6 – Account Gen",
              "stock_count": 0
            },
            "variant": {
              "id": 955421,
              "name": "1 Day"
            }
          }
        ]
      }
    },
    {
      "id": 2041222,
      "invoice_id": 9984924,
      "status": "published",
      "message": null,
      "rating": 5,
      "is_automatic": true,
      "reply": null,
      "dispute_reason": null,
      "disputed_at": null,
      "replied_at": null,
      "created_at": "2026-02-20T16:45:21.000000Z",
      "updated_at": "2026-02-20T16:45:21.000000Z",
      "deleted_at": null,
      "invoice": {
        "id": 9984924,
        "salt": "1261767441213",
        "email": "xonnds@gmail.com",
        "unique_id": "1261767441213-0000009984924",
        "items": [
          {
            "id": 8274428,
            "invoice_id": 9984924,
            "product_id": 465176,
            "variant_id": 683033,
            "product": {
              "id": 465176,
              "name": "Vega - R6 External",
              "stock_count": 0
            },
            "variant": {
              "id": 683033,
              "name": "Day"
            }
          }
        ]
      }
    },
    {
      "id": 2019590,
      "invoice_id": 10058339,
      "status": "published",
      "message": "helped me out legit asf",
      "rating": 5,
      "is_automatic": false,
      "reply": null,
      "dispute_reason": null,
      "disputed_at": null,
      "replied_at": null,
      "created_at": "2026-02-16T06:46:16.000000Z",
      "updated_at": "2026-02-16T06:46:16.000000Z",
      "deleted_at": null,
      "invoice": {
        "id": 10058339,
        "salt": "fff12e250847e",
        "email": "jamisonkaden7@gmail.com",
        "unique_id": "fff12e250847e-0000010058339",
        "items": [
          {
            "id": 8351338,
            "invoice_id": 10058339,
            "product_id": 613804,
            "variant_id": 958923,
            "product": {
              "id": 613804,
              "name": "Level 91 R6 Account | Obsidian | PSN Linkable",
              "stock_count": 0
            },
            "variant": {
              "id": 958923,
              "name": "NFA Accounts"
            }
          }
        ]
      }
    },
    {
      "id": 2014644,
      "invoice_id": 10032353,
      "status": "published",
      "message": "best acc ever",
      "rating": 5,
      "is_automatic": false,
      "reply": null,
      "dispute_reason": null,
      "disputed_at": null,
      "replied_at": null,
      "created_at": "2026-02-15T10:42:30.000000Z",
      "updated_at": "2026-02-15T10:42:30.000000Z",
      "deleted_at": null,
      "invoice": {
        "id": 10032353,
        "salt": "3a775c0178c3b",
        "email": "joeb1666789@outlook.com",
        "unique_id": "3a775c0178c3b-0000010032353",
        "items": [
          {
            "id": 8324119,
            "invoice_id": 10032353,
            "product_id": 613804,
            "variant_id": 958923,
            "product": {
              "id": 613804,
              "name": "Level 91 R6 Account | Obsidian | PSN Linkable",
              "stock_count": 0
            },
            "variant": {
              "id": 958923,
              "name": "NFA Accounts"
            }
          }
        ]
      }
    },
    {
      "id": 2011487,
      "invoice_id": 9843870,
      "status": "published",
      "message": null,
      "rating": 5,
      "is_automatic": true,
      "reply": null,
      "dispute_reason": null,
      "disputed_at": null,
      "replied_at": null,
      "created_at": "2026-02-14T20:38:11.000000Z",
      "updated_at": "2026-02-14T20:38:11.000000Z",
      "deleted_at": null,
      "invoice": {
        "id": 9843870,
        "salt": "1494aee4c9aab",
        "email": "Carsynbaer2011@icloud.com",
        "unique_id": "1494aee4c9aab-0000009843870",
        "items": [
          {
            "id": 8126495,
            "invoice_id": 9843870,
            "product_id": 465176,
            "variant_id": 683033,
            "product": {
              "id": 465176,
              "name": "Vega - R6 External",
              "stock_count": 0
            },
            "variant": {
              "id": 683033,
              "name": "Day"
            }
          }
        ]
      }
    },
    {
      "id": 2003106,
      "invoice_id": 9804667,
      "status": "published",
      "message": null,
      "rating": 5,
      "is_automatic": true,
      "reply": null,
      "dispute_reason": null,
      "disputed_at": null,
      "replied_at": null,
      "created_at": "2026-02-13T10:13:02.000000Z",
      "updated_at": "2026-02-13T10:13:02.000000Z",
      "deleted_at": null,
      "invoice": {
        "id": 9804667,
        "salt": "a4d5232683d23",
        "email": "dantelee.b@gmail.com",
        "unique_id": "a4d5232683d23-0000009804667",
        "items": [
          {
            "id": 8085349,
            "invoice_id": 9804667,
            "product_id": 465176,
            "variant_id": 683033,
            "product": {
              "id": 465176,
              "name": "Vega - R6 External",
              "stock_count": 0
            },
            "variant": {
              "id": 683033,
              "name": "Day"
            }
          }
        ]
      }
    },
    {
      "id": 2002032,
      "invoice_id": 9799973,
      "status": "published",
      "message": null,
      "rating": 5,
      "is_automatic": true,
      "reply": null,
      "dispute_reason": null,
      "disputed_at": null,
      "replied_at": null,
      "created_at": "2026-02-13T02:40:04.000000Z",
      "updated_at": "2026-02-13T02:40:04.000000Z",
      "deleted_at": null,
      "invoice": {
        "id": 9799973,
        "salt": "cfde78829c32f",
        "email": "xiongder487@gmail.com",
        "unique_id": "cfde78829c32f-0000009799973",
        "items": [
          {
            "id": 8080461,
            "invoice_id": 9799973,
            "product_id": 576558,
            "variant_id": 890681,
            "product": {
              "id": 576558,
              "name": "Coffee Lite - EFT",
              "stock_count": 0
            },
            "variant": {
              "id": 890681,
              "name": "1 Day"
            }
          }
        ]
      }
    },
    {
      "id": 1993336,
      "invoice_id": 9755822,
      "status": "published",
      "message": null,
      "rating": 5,
      "is_automatic": true,
      "reply": null,
      "dispute_reason": null,
      "disputed_at": null,
      "replied_at": null,
      "created_at": "2026-02-11T02:52:03.000000Z",
      "updated_at": "2026-02-11T02:52:03.000000Z",
      "deleted_at": null,
      "invoice": {
        "id": 9755822,
        "salt": "bf264bc06f612",
        "email": "andyabarca67@hotmail.com",
        "unique_id": "bf264bc06f612-0000009755822",
        "items": [
          {
            "id": 8034285,
            "invoice_id": 9755822,
            "product_id": 576558,
            "variant_id": 890681,
            "product": {
              "id": 576558,
              "name": "Coffee Lite - EFT",
              "stock_count": 0
            },
            "variant": {
              "id": 890681,
              "name": "1 Day"
            }
          }
        ]
      }
    },
    {
      "id": 1993062,
      "invoice_id": 9923843,
      "status": "published",
      "message": "awesome delivery cheat works well 100% legit",
      "rating": 5,
      "is_automatic": false,
      "reply": null,
      "dispute_reason": null,
      "disputed_at": null,
      "replied_at": null,
      "created_at": "2026-02-11T01:26:47.000000Z",
      "updated_at": "2026-02-11T01:26:47.000000Z",
      "deleted_at": null,
      "invoice": {
        "id": 9923843,
        "salt": "f2f09624009df",
        "email": "242boom@gmail.com",
        "unique_id": "f2f09624009df-0000009923843",
        "items": [
          {
            "id": 8210352,
            "invoice_id": 9923843,
            "product_id": 465176,
            "variant_id": 683033,
            "product": {
              "id": 465176,
              "name": "Vega - R6 External",
              "stock_count": 0
            },
            "variant": {
              "id": 683033,
              "name": "Day"
            }
          }
        ]
      }
    },
    {
      "id": 1982739,
      "invoice_id": 9703898,
      "status": "published",
      "message": null,
      "rating": 5,
      "is_automatic": true,
      "reply": null,
      "dispute_reason": null,
      "disputed_at": null,
      "replied_at": null,
      "created_at": "2026-02-09T03:15:15.000000Z",
      "updated_at": "2026-02-09T03:15:15.000000Z",
      "deleted_at": null,
      "invoice": {
        "id": 9703898,
        "salt": "30936a28dd77a",
        "email": "andyabarca67@hotmail.com",
        "unique_id": "30936a28dd77a-0000009703898",
        "items": [
          {
            "id": 7979830,
            "invoice_id": 9703898,
            "product_id": 576558,
            "variant_id": 890681,
            "product": {
              "id": 576558,
              "name": "Coffee Lite - EFT",
              "stock_count": 0
            },
            "variant": {
              "id": 890681,
              "name": "1 Day"
            }
          }
        ]
      }
    },
    {
      "id": 1976729,
      "invoice_id": 9682425,
      "status": "published",
      "message": null,
      "rating": 5,
      "is_automatic": true,
      "reply": null,
      "dispute_reason": null,
      "disputed_at": null,
      "replied_at": null,
      "created_at": "2026-02-08T03:19:04.000000Z",
      "updated_at": "2026-02-08T03:19:04.000000Z",
      "deleted_at": null,
      "invoice": {
        "id": 9682425,
        "salt": "bc9a4d6c3be10",
        "email": "lordmiller16@gmail.com",
        "unique_id": "bc9a4d6c3be10-0000009682425",
        "items": [
          {
            "id": 7957389,
            "invoice_id": 9682425,
            "product_id": 576463,
            "variant_id": 890477,
            "product": {
              "id": 576463,
              "name": "Exodus - Fortnite External",
              "stock_count": 0
            },
            "variant": {
              "id": 890477,
              "name": "1 Day"
            }
          }
        ]
      }
    },
    {
      "id": 1966433,
      "invoice_id": 9804926,
      "status": "published",
      "message": "i love this cheat",
      "rating": 5,
      "is_automatic": false,
      "reply": null,
      "dispute_reason": null,
      "disputed_at": null,
      "replied_at": null,
      "created_at": "2026-02-06T10:26:17.000000Z",
      "updated_at": "2026-02-06T10:26:17.000000Z",
      "deleted_at": null,
      "invoice": {
        "id": 9804926,
        "salt": "a878361852794",
        "email": "join77222@gmail.com",
        "unique_id": "a878361852794-0000009804926",
        "items": [
          {
            "id": 8085620,
            "invoice_id": 9804926,
            "product_id": 576463,
            "variant_id": 890477,
            "product": {
              "id": 576463,
              "name": "Exodus - Fortnite External",
              "stock_count": 0
            },
            "variant": {
              "id": 890477,
              "name": "1 Day"
            }
          }
        ]
      }
    },
    {
      "id": 1965664,
      "invoice_id": 9630696,
      "status": "published",
      "message": null,
      "rating": 5,
      "is_automatic": true,
      "reply": null,
      "dispute_reason": null,
      "disputed_at": null,
      "replied_at": null,
      "created_at": "2026-02-06T04:23:33.000000Z",
      "updated_at": "2026-02-06T04:23:33.000000Z",
      "deleted_at": null,
      "invoice": {
        "id": 9630696,
        "salt": "2f0a67f412d42",
        "email": "andyabarca67@hotmail.com",
        "unique_id": "2f0a67f412d42-0000009630696",
        "items": [
          {
            "id": 7903134,
            "invoice_id": 9630696,
            "product_id": 576558,
            "variant_id": 890681,
            "product": {
              "id": 576558,
              "name": "Coffee Lite - EFT",
              "stock_count": 0
            },
            "variant": {
              "id": 890681,
              "name": "1 Day"
            }
          }
        ]
      }
    }
  ],
  "first_page_url": "https://api.sellauth.com/v1/shops/169969/feedbacks?page=1",
  "from": 1,
  "last_page": 6,
  "last_page_url": "https://api.sellauth.com/v1/shops/169969/feedbacks?page=6",
  "links": [
    {
      "url": null,
      "label": "&laquo; Previous",
      "active": false
    },
    {
      "url": "https://api.sellauth.com/v1/shops/169969/feedbacks?page=1",
      "label": "1",
      "active": true
    },
    {
      "url": "https://api.sellauth.com/v1/shops/169969/feedbacks?page=2",
      "label": "2",
      "active": false
    },
    {
      "url": "https://api.sellauth.com/v1/shops/169969/feedbacks?page=3",
      "label": "3",
      "active": false
    },
    {
      "url": "https://api.sellauth.com/v1/shops/169969/feedbacks?page=4",
      "label": "4",
      "active": false
    },
    {
      "url": "https://api.sellauth.com/v1/shops/169969/feedbacks?page=5",
      "label": "5",
      "active": false
    },
    {
      "url": "https://api.sellauth.com/v1/shops/169969/feedbacks?page=6",
      "label": "6",
      "active": false
    },
    {
      "url": "https://api.sellauth.com/v1/shops/169969/feedbacks?page=2",
      "label": "Next &raquo;",
      "active": false
    }
  ],
  "next_page_url": "https://api.sellauth.com/v1/shops/169969/feedbacks?page=2",
  "path": "https://api.sellauth.com/v1/shops/169969/feedbacks",
  "per_page": 20,
  "prev_page_url": null,
  "to": 20,
  "total": 116
}